<svg xmlns="http://www.w3.org/2000/svg" width="20" height="20" viewBox="0 0 20 20">
    <rect width="19" height="19" x=".5" y=".5" fill="none" fill-rule="evenodd" stroke="#525252" opacity=".2" rx="3"/>
</svg>
